*** Darwin 15x6 ***
Turn = 0.
  012345
0 ..f..f
1 ......
2 ......
3 ......
4 h.....
5 ......
6 ...h..
7 ......
8 ......
9 ......
0 ......
1 ......
2 .....r
3 ......
4 ......

Turn = 1.
  012345
0 ..f..f
1 ......
2 ......
3 ......
4 h.....
5 ......
6 ..h...
7 ......
8 ......
9 ......
0 ......
1 ......
2 ......
3 .....r
4 ......

Turn = 2.
  012345
0 ..f..f
1 ......
2 ......
3 ......
4 h.....
5 ......
6 .h....
7 ......
8 ......
9 ......
0 ......
1 ......
2 ......
3 ......
4 .....r

Turn = 3.
  012345
0 ..f..f
1 ......
2 ......
3 ......
4 h.....
5 ......
6 h.....
7 ......
8 ......
9 ......
0 ......
1 ......
2 ......
3 ......
4 .....r

Turn = 4.
  012345
0 ..f..f
1 ......
2 ......
3 ......
4 h.....
5 ......
6 h.....
7 ......
8 ......
9 ......
0 ......
1 ......
2 ......
3 ......
4 ....r.

Turn = 5.
  012345
0 ..f..f
1 ......
2 ......
3 ......
4 h.....
5 ......
6 h.....
7 ......
8 ......
9 ......
0 ......
1 ......
2 ......
3 ......
4 ...r..

Turn = 6.
  012345
0 ..f..f
1 ......
2 ......
3 ......
4 h.....
5 ......
6 h.....
7 ......
8 ......
9 ......
0 ......
1 ......
2 ......
3 ......
4 ..r...

Turn = 7.
  012345
0 ..f..f
1 ......
2 ......
3 ......
4 h.....
5 ......
6 h.....
7 ......
8 ......
9 ......
0 ......
1 ......
2 ......
3 ......
4 .r....

Turn = 8.
  012345
0 ..f..f
1 ......
2 ......
3 ......
4 h.....
5 ......
6 h.....
7 ......
8 ......
9 ......
0 ......
1 ......
2 ......
3 ......
4 r.....

Turn = 9.
  012345
0 ..f..f
1 ......
2 ......
3 ......
4 h.....
5 ......
6 h.....
7 ......
8 ......
9 ......
0 ......
1 ......
2 ......
3 ......
4 r.....

Turn = 10.
  012345
0 ..f..f
1 ......
2 ......
3 ......
4 h.....
5 ......
6 h.....
7 ......
8 ......
9 ......
0 ......
1 ......
2 ......
3 ......
4 r.....

Turn = 11.
  012345
0 ..f..f
1 ......
2 ......
3 ......
4 h.....
5 ......
6 h.....
7 ......
8 ......
9 ......
0 ......
1 ......
2 ......
3 ......
4 r.....

Turn = 12.
  012345
0 ..f..f
1 ......
2 ......
3 ......
4 h.....
5 ......
6 h.....
7 ......
8 ......
9 ......
0 ......
1 ......
2 ......
3 r.....
4 ......

Turn = 13.
  012345
0 ..f..f
1 ......
2 ......
3 ......
4 h.....
5 ......
6 h.....
7 ......
8 ......
9 ......
0 ......
1 ......
2 r.....
3 ......
4 ......

Turn = 14.
  012345
0 ..f..f
1 ......
2 ......
3 ......
4 h.....
5 ......
6 h.....
7 ......
8 ......
9 ......
0 ......
1 r.....
2 ......
3 ......
4 ......

Turn = 15.
  012345
0 ..f..f
1 ......
2 ......
3 ......
4 h.....
5 ......
6 h.....
7 ......
8 ......
9 ......
0 r.....
1 ......
2 ......
3 ......
4 ......

Turn = 16.
  012345
0 ..f..f
1 ......
2 ......
3 ......
4 h.....
5 ......
6 h.....
7 ......
8 ......
9 r.....
0 ......
1 ......
2 ......
3 ......
4 ......

Turn = 17.
  012345
0 ..f..f
1 ......
2 ......
3 ......
4 h.....
5 ......
6 h.....
7 ......
8 r.....
9 ......
0 ......
1 ......
2 ......
3 ......
4 ......

Turn = 18.
  012345
0 ..f..f
1 ......
2 ......
3 ......
4 h.....
5 ......
6 h.....
7 r.....
8 ......
9 ......
0 ......
1 ......
2 ......
3 ......
4 ......

Turn = 19.
  012345
0 ..f..f
1 ......
2 ......
3 ......
4 h.....
5 ......
6 r.....
7 r.....
8 ......
9 ......
0 ......
1 ......
2 ......
3 ......
4 ......

Turn = 20.
  012345
0 ..f..f
1 ......
2 ......
3 ......
4 h.....
5 ......
6 r.....
7 r.....
8 ......
9 ......
0 ......
1 ......
2 ......
3 ......
4 ......

*** Darwin 31x7 ***
Turn = 0.
  0123456
0 ...h...
1 ....t..
2 t....f.
3 ...rr..
4 r..h..f
5 f...h.t
6 ...r...
7 .f.....
8 t......
9 .f.t..f
0 .....h.
1 ..t..r.
2 .t.h..r
3 .....f.
4 ......t
5 ...t...
6 ..h....
7 r....h.
8 ...rf..
9 .......
0 ..f....
1 h......
2 ..t.r..
3 ..r....
4 ....hr.
5 .......
6 h.rr...
7 .r.....
8 hf.....
9 ...rrf.
0 .t..t..

Turn = 17.
  0123456
0 r..rr.r
1 ....t.r
2 ....t..
3 ....tt.
4 r...t.r
5 ....r..
6 ...r...
7 tt.....
8 ttr....
9 tt...r.
0 .......
1 ..t....
2 .tt...h
3 .....t.
4 .....tt
5 r..t...
6 .......
7 ......h
8 r.....r
9 ..r...r
0 .....rr
1 r...r.r
2 r....r.
3 .......
4 ..r....
5 .r.....
6 ..r....
7 r......
8 .......
9 r......
0 r..r...

Turn = 34.
  0123456
0 ....rr.
1 ....t..
2 ...ttt.
3 ....rtt
4 ...rtt.
5 r...t..
6 t.....r
7 tt.....
8 tt.....
9 tt.....
0 t......
1 ...r...
2 trrrr..
3 tr...rt
4 t....tt
5 ...t...
6 .......
7 ......h
8 .......
9 ......r
0 ..r....
1 ......r
2 ...r...
3 .......
4 r..r...
5 ....rr.
6 ......r
7 ......r
8 ...r...
9 .......
0 .r.....

Turn = 51.
  0123456
0 r...t..
1 ....t..
2 ...tttt
3 ..r.r.t
4 ...rt..
5 t...tt.
6 t..r...
7 tttr..r
8 tt.....
9 ttr....
0 t......
1 .r.....
2 ttt...r
3 tt.....
4 tt.....
5 ......r
6 .......
7 .......
8 .......
9 r......
0 r......
1 rrr...r
2 .r.....
3 r......
4 .r.....
5 ......r
6 ....r..
7 .......
8 .....r.
9 .......
0 .......

Turn = 68.
  0123456
0 .rr..rr
1 ......r
2 r....tt
3 ...t..t
4 r..tt..
5 rr..ttt
6 ....trt
7 ......t
8 .t....r
9 tt...rr
0 tt.....
1 tt.....
2 tt....r
3 tr....r
4 tr.....
5 t.r....
6 .......
7 .......
8 .......
9 ......r
0 ......r
1 ......r
2 .......
3 .......
4 .r.....
5 .......
6 .......
7 .......
8 .......
9 ....r..
0 ....rrr

*** Darwin 18x25 ***
Turn = 0.
  0123456789012345678901234
0 ..........h...f........f.
1 .........................
2 ..............h........t.
3 .........................
4 .........................
5 .t.......................
6 .........................
7 .........................
8 ..............r..h......h
9 .........................
0 .........................
1 ..............r..........
2 ...........r.............
3 .......h........h........
4 t........................
5 ...h.....................
6 ..h......................
7 .........................

Turn = 26.
  0123456789012345678901234
0 r.h....h......f........f.
1 r........................
2 r......................t.
3 .r.......................
4 .........................
5 .t.......................
6 .........................
7 .........................
8 ....................hh...
9 .........................
0 .........................
1 .........................
2 .........................
3 ........................h
4 t........................
5 t........................
6 .........................
7 ..............h..........

Turn = 52.
  0123456789012345678901234
0 ...................r..rf.
1 ........................r
2 ......................tt.
3 .........................
4 r........................
5 .r......................r
6 .........................
7 .r.......................
8 ....................hh...
9 .........................
0 .........................
1 .........................
2 .........................
3 ........................h
4 t........................
5 t........................
6 .........................
7 ..............h..........

*** Darwin 22x30 ***
Turn = 0.
  012345678901234567890123456789
0 ..............................
1 ..............................
2 ..............................
3 ..............................
4 ..............................
5 ..............................
6 ..................t...........
7 ..............................
8 ..............................
9 ..............................
0 ..............................
1 ..............................
2 ..f...........................
3 ..............................
4 ...f..........................
5 ..............................
6 ..............................
7 ..............................
8 ..............................
9 ..............................
0 ..............................
1 .......r......................

Turn = 3.
  012345678901234567890123456789
0 ..............................
1 ..............................
2 ..............................
3 ..............................
4 ..............................
5 ..............................
6 ..................t...........
7 ..............................
8 ..............................
9 ..............................
0 ..............................
1 ..............................
2 ..f...........................
3 ..............................
4 ...f..........................
5 ..............................
6 ..............................
7 ..............................
8 ..............................
9 ..............................
0 ..............................
1 .....r........................

Turn = 6.
  012345678901234567890123456789
0 ..............................
1 ..............................
2 ..............................
3 ..............................
4 ..............................
5 ..............................
6 ..................t...........
7 ..............................
8 ..............................
9 ..............................
0 ..............................
1 ..............................
2 ..f...........................
3 ..............................
4 ...f..........................
5 ..............................
6 ..............................
7 ..............................
8 ..............................
9 ..............................
0 ..............................
1 ..r...........................

Turn = 9.
  012345678901234567890123456789
0 ..............................
1 ..............................
2 ..............................
3 ..............................
4 ..............................
5 ..............................
6 ..................t...........
7 ..............................
8 ..............................
9 ..............................
0 ..............................
1 ..............................
2 ..f...........................
3 ..............................
4 ...f..........................
5 ..............................
6 ..............................
7 ..............................
8 ..............................
9 ..............................
0 ..............................
1 r.............................

Turn = 12.
  012345678901234567890123456789
0 ..............................
1 ..............................
2 ..............................
3 ..............................
4 ..............................
5 ..............................
6 ..................t...........
7 ..............................
8 ..............................
9 ..............................
0 ..............................
1 ..............................
2 ..f...........................
3 ..............................
4 ...f..........................
5 ..............................
6 ..............................
7 ..............................
8 ..............................
9 ..............................
0 r.............................
1 ..............................

Turn = 15.
  012345678901234567890123456789
0 ..............................
1 ..............................
2 ..............................
3 ..............................
4 ..............................
5 ..............................
6 ..................t...........
7 ..............................
8 ..............................
9 ..............................
0 ..............................
1 ..............................
2 ..f...........................
3 ..............................
4 ...f..........................
5 ..............................
6 ..............................
7 r.............................
8 ..............................
9 ..............................
0 ..............................
1 ..............................

Turn = 18.
  012345678901234567890123456789
0 ..............................
1 ..............................
2 ..............................
3 ..............................
4 ..............................
5 ..............................
6 ..................t...........
7 ..............................
8 ..............................
9 ..............................
0 ..............................
1 ..............................
2 ..f...........................
3 ..............................
4 r..f..........................
5 ..............................
6 ..............................
7 ..............................
8 ..............................
9 ..............................
0 ..............................
1 ..............................

Turn = 21.
  012345678901234567890123456789
0 ..............................
1 ..............................
2 ..............................
3 ..............................
4 ..............................
5 ..............................
6 ..................t...........
7 ..............................
8 ..............................
9 ..............................
0 ..............................
1 r.............................
2 ..f...........................
3 ..............................
4 ...f..........................
5 ..............................
6 ..............................
7 ..............................
8 ..............................
9 ..............................
0 ..............................
1 ..............................

*** Darwin 14x4 ***
Turn = 0.
  0123
0 .t..
1 ....
2 ....
3 ....
4 ....
5 ....
6 ....
7 ....
8 tr..
9 .h..
0 ....
1 f..r
2 ....
3 ....

Turn = 10.
  0123
0 .t..
1 ....
2 ....
3 ....
4 ....
5 ....
6 ....
7 ....
8 t...
9 t...
0 ..r.
1 f...
2 ....
3 r...

Turn = 20.
  0123
0 .tr.
1 ....
2 ....
3 ....
4 ....
5 ....
6 ....
7 ....
8 t...
9 t...
0 ....
1 f...
2 ....
3 r...

Turn = 30.
  0123
0 ....
1 ....
2 ....
3 ....
4 ....
5 r...
6 ....
7 ....
8 tr..
9 t...
0 ....
1 ...r
2 ....
3 r...

Turn = 40.
  0123
0 ....
1 ....
2 ....
3 ....
4 ...r
5 ....
6 ....
7 ....
8 ...r
9 ..r.
0 ...r
1 r..r
2 ....
3 ....

Turn = 50.
  0123
0 ..r.
1 r...
2 r..r
3 ....
4 ....
5 r...
6 ....
7 ....
8 ....
9 ....
0 ....
1 ....
2 ....
3 ...r

Turn = 60.
  0123
0 r..r
1 ...r
2 ....
3 ....
4 ..rr
5 ....
6 ....
7 ...r
8 ....
9 ....
0 ....
1 ....
2 ....
3 ....

Turn = 70.
  0123
0 r..r
1 ....
2 ....
3 r...
4 ....
5 ....
6 ....
7 ....
8 ....
9 r...
0 ....
1 r..r
2 ....
3 ....

Turn = 80.
  0123
0 ....
1 ...r
2 ....
3 ....
4 ....
5 r...
6 ....
7 ....
8 ....
9 r...
0 ....
1 .r..
2 ..r.
3 ...r

Turn = 90.
  0123
0 ....
1 ....
2 ....
3 ....
4 ....
5 ....
6 ...r
7 ...r
8 .r..
9 ....
0 ....
1 r.r.
2 ....
3 .r..

*** Darwin 10x15 ***
Turn = 0.
  012345678901234
0 .hf.f......f...
1 h.f..f..f...r..
2 ...............
3 .t.............
4 ...f...........
5 ....r.......h.f
6 .f........r....
7 .............tf
8 h.r.....r....h.
9 .fhr.......f...

Turn = 10.
  012345678901234
0 hrrr....r..f...
1 r....f..fr.....
2 ..t............
3 .tt............
4 ..tf...........
5 ..h...........f
6 .f.............
7 .............tt
8 r..............
9 r..........frrr

Turn = 20.
  012345678901234
0 r.........rrr..
1 r.t..f.........
2 .rt............
3 rrt............
4 ..tt...........
5 r.............f
6 r...r..........
7 ...........rrtt
8 ........r.....t
9 .......r..r....

Turn = 30.
  012345678901234
0 r.....r........
1 .rt....r.......
2 .tt...r........
3 r.t...rr.......
4 ..tt..rr.......
5 ...t..........f
6 .........r....r
7 r............tt
8 ..............t
9 r.............t

Turn = 40.
  012345678901234
0 r.r.r.r..r....r
1 ....r....r.r..r
2 ...............
3 ...............
4 r.....r........
5 ..tt..........t
6 .............tt
7 .............tt
8 .r...r........t
9 .r.rr.........t

Turn = 50.
  012345678901234
0 ......r.r.r...r
1 ........r....r.
2 .........r...rr
3 ...........r..r
4 ..........r...r
5 ..tt...........
6 ...t.....rr....
7 ......r......tt
8 ......r.......r
9 ...r.........rr

Turn = 60.
  012345678901234
0 ..r.......r....
1 ........r......
2 .............r.
3 .r...r.......r.
4 ....r....r.....
5 ..tt..........r
6 ...ttrr.......r
7 ............r.r
8 .......r..r.r.r
9 .........r.r.r.

Turn = 70.
  012345678901234
0 ..r...r..r.....
1 ............r.r
2 ............r.r
3 ....r.........r
4 .......r.......
5 .rtt.........r.
6 ...tt....r.....
7 r...t...r......
8 r.r.r...r......
9 r............r.

*** Darwin 5x21 ***
Turn = 0.
  012345678901234567890
0 .............f.......
1 ..........f.t...t.t..
2 .t..rf..t....f....t..
3 ............t..t..h..
4 ..........f.....hf...

Turn = 31.
  012345678901234567890
0 ............tt.......
1 ..........f.t...t.t..
2 .t...f..t....f....t..
3 ............t..tt....
4 ..........f.....tt...

*** Darwin 21x4 ***
Turn = 0.
  0123
0 ....
1 ....
2 .r..
3 ....
4 ....
5 ...t
6 ....
7 ....
8 ....
9 t..h
0 ...r
1 ....
2 ....
3 ....
4 ....
5 ....
6 ....
7 ....
8 ....
9 ....
0 ....

Turn = 35.
  0123
0 ....
1 ....
2 ....
3 ...r
4 ....
5 ....
6 ....
7 ....
8 ...r
9 ttr.
0 ....
1 ....
2 ....
3 ....
4 ....
5 ....
6 ....
7 ....
8 ....
9 ....
0 ....

*** Darwin 4x3 ***
Turn = 0.
  012
0 f..
1 ...
2 ...
3 h..

*** Darwin 7x12 ***
Turn = 0.
  012345678901
0 ...r........
1 ............
2 t...r.ht..f.
3 ......r..f..
4 ............
5 ...t.h....t.
6 ............

Turn = 4.
  012345678901
0 ...r........
1 ............
2 t.......rr.r
3 ........rf..
4 ...r........
5 ...th.....t.
6 ............

Turn = 8.
  012345678901
0 r........rr.
1 ............
2 t...r.r.....
3 ...........r
4 ............
5 ...r......tr
6 ...r........

Turn = 12.
  012345678901
0 ...r.......r
1 rr.........r
2 ..r.........
3 .........r..
4 ............
5 ......r...t.
6 .......r...r

Turn = 16.
  012345678901
0 r...........
1 .r...r.r....
2 ............
3 r..........r
4 ............
5 ........r.tr
6 ........r.r.

Turn = 20.
  012345678901
0 ......rr....
1 ............
2 ............
3 r..........r
4 .........r..
5 .r..r.....t.
6 r....r....t.

Turn = 24.
  012345678901
0 ....r......r
1 ............
2 ............
3 ............
4 .....r.r....
5 rr........t.
6 rrr.......t.

Turn = 28.
  012345678901
0 r...........
1 .r..........
2 ............
3 ...........r
4 .r..........
5 .r.r......t.
6 rr......r.t.

Turn = 32.
  012345678901
0 .r..........
1 rr..........
2 ............
3 .r..........
4 r...........
5 r......r..t.
6 .........rrr

Turn = 36.
  012345678901
0 .r.r........
1 ............
2 r...........
3 ............
4 ...r........
5 r........r.r
6 r........rrr
